path,gender,number
train/000bee1b1d.wav,male,992597
train/00a06f910a.wav,female,958380
train/00a9347c36.wav,male,914706
train/00bd5a31b9.wav,male,177872
train/00c3b103f1.wav,female,171852
train/00c7244daa.wav,male,216541
train/00c9194061.wav,female,746635
train/00d05d66e2.wav,female,933653
train/00e9a7e8ca.wav,female,134108
train/00e277dfff.wav,female,323100
train/00ece8359e.wav,female,259480
train/00f5b3e9f9.wav,female,141220
train/00f52f387e.wav,male,611169
train/00f62efbce.wav,female,232200
train/00fe5816dd.wav,female,208564
train/00ff4e5334.wav,female,422606
train/00ff46ab89.wav,female,181184
train/0a0e03cd54.wav,female,464543
train/0a1ed10f59.wav,male,281536
train/0a2df43d3e.wav,female,612634
train/0a2f84a7f5.wav,male,880527
train/0a5ea040ea.wav,male,252372
train/0a7af21861.wav,female,812759
train/0a7d170623.wav,female,489326
train/0a9c764482.wav,female,835307
train/0a12bfd0bf.wav,female,812229
train/0a24e08239.wav,female,436355
train/0a53d0bf30.wav,female,89016
train/0a57a2361d.wav,female,30577
train/0a60d8b6ae.wav,female,671759
train/0a64fca9cc.wav,female,435820
train/0a70acc47a.wav,female,879078
train/0a472e44da.wav,female,174766
train/0a565d0b2e.wav,male,476398
train/0a46606712.wav,female,333400
train/0aa0d6077b.wav,female,766715
train/0aa60ba6c3.wav,female,266360
train/0aa78a3e56.wav,male,753792
train/0aa9114d4e.wav,male,65469
train/0aab35f4ba.wav,male,971970
train/0aadd8578f.wav,male,475679
train/0ab62c4d60.wav,male,188766
train/0acccefd90.wav,female,211025
train/0ad9b4fabc.wav,female,238158
train/0ad41a3ee6.wav,male,808084
train/0ae15ab8cb.wav,female,141460
train/0b1d4846f1.wav,female,214944
train/0b4da3fe7a.wav,male,791901
train/0b5bf0bbb9.wav,female,314288
train/0b5e86158a.wav,male,305559
train/0b6a0d9031.wav,female,22538
train/0b6aa14d9d.wav,male,447629
train/0b25f435af.wav,female,487174
train/0b30c1c51c.wav,female,851082
train/0b033d5e98.wav,male,180317
train/0b036d643d.wav,female,147182
train/0b44cf447c.wav,male,901021
train/0b366ffd6c.wav,male,888475
train/0b537ad3b4.wav,female,742402
train/0b3547bb63.wav,female,589222
train/0b51350ff1.wav,female,402570
train/0b84336c32.wav,female,970050
train/0b636727ed.wav,male,515242
train/0b93711495.wav,male,504584
train/0ba8419692.wav,male,597050
train/0bab2b74b9.wav,female,40707
train/0bb4adae14.wav,female,138070
train/0bc6d85eec.wav,male,106890
train/0bd2b1c252.wav,male,711836
train/0bd7bf2299.wav,male,939307
train/0bd41ca2e6.wav,female,924533
train/0bde5ac8ab.wav,female,219205
train/0bf4d218da.wav,female,926631
train/0bf5c048b9.wav,female,75814
train/0bf365c1eb.wav,female,357011
train/0bf596fc1b.wav,female,551490
train/0bfc4c8a97.wav,female,679440
train/0c2d73a155.wav,female,521673
train/0c3f301f80.wav,female,293490
train/0c4a38cade.wav,female,104127
train/0c07a0bb04.wav,male,339425
train/0c7d551259.wav,male,75861
train/0c7f8f2d62.wav,female,32614
train/0c7f42db68.wav,female,438549
train/0c8c67e2ea.wav,male,279709
train/0c77c81028.wav,female,101632
train/0c146ad6d5.wav,male,322018
train/0c393d5808.wav,female,597860
train/0c0397d75b.wav,female,57000
train/0c510ede66.wav,male,878050
train/0c726ad315.wav,male,313899
train/0c59681274.wav,male,301169
train/0c89308571.wav,female,496456
train/0ca5cfba1c.wav,male,748255
train/0ca76bcccc.wav,male,486684
train/0ca4309af1.wav,male,785940
train/0caf8fd72e.wav,female,508299
train/0cb1e4043d.wav,female,628536
train/0cb5da4c61.wav,female,595967
train/0cb307a9bf.wav,female,317113
